Title,Analog Battery Regulator 
Revision,3.1
Date,2018-06-30
Generated,2018 October 30, Tuesday 10:15:00
Company,Ti'Eole
Comment 1,Adrien Prévost
Comment 2,
Comment 3,
Comment 4,
Total Parts,56
Total Unique Parts,33



Ref,Qty,Value,Footprint,Datasheet,
C1 C1 C3 C4 ,4,100n,Capacitors_perso:L6mm,W3mm,
C2 C8 ,2,2.2u,Capacitors_perso:L6mm,W3mm,
CSS1 ,1,10n,Capacitors_perso:L6mm,W3mm,
D1 ,1,1N5353B,Diodes_THT:D_DO-15_P12.70mm_Horizontal,
D2 ,1,LED L-53GD,LEDs:LED_D5.0mm,
D3 ,1,LED L-53HD,LEDs:LED_D5.0mm,
D4 D5 ,2,1N5819,Diodes_THT:D_DO-15_P10.16mm_Horizontal,
D6 ,1,SR5100,Diodes_perso:D_DO-27_P18mm_Horizontal,
IC1 ,1,SG3525,Housings_DIP:DIP-16_W7.62mm,
J1 ,1,Dump,Terminal_blocks_perso:2p_m5,
J2 ,1,IN,Terminal_blocks_perso:2p_m5,
J3 ,1,Conn_01x03,Terminal_blocks_perso:3p_p3,5_W7_L11,
Q1 ,1,FJA43100TU,TO_SOT_Packages_THT:TO-3PB__Vertical,
Q2 Q3 Q4 Q5 ,4,IRFB4321,TO_SOT_Packages_THT:TO-220-3_Vertical,
R1 R2 R3 R4 R20 R21 R23 ,7,10k,Resistors_THT:R_Axial_DIN0207_L6.3mm_D2.5mm_P10.16mm_Horizontal,
R5 R10 ,2,20k,Resistors_THT:R_Axial_DIN0207_L6.3mm_D2.5mm_P10.16mm_Horizontal,
R6 R25 ,2,11k,Resistors_THT:R_Axial_DIN0207_L6.3mm_D2.5mm_P10.16mm_Horizontal,
R7 ,1,1k,Resistors_THT:R_Axial_DIN0207_L6.3mm_D2.5mm_P10.16mm_Horizontal,
R8 ,1,4.7k,Resistors_THT:R_Axial_DIN0411_L9.9mm_D3.6mm_P12.70mm_Horizontal,
R9 ,1,1.5k,Resistors_perso:R_Axial_Power_L40.0mm_W9.0mm_P47.72mm,
R11 ,1,4.3k,Resistors_THT:R_Axial_DIN0207_L6.3mm_D2.5mm_P10.16mm_Horizontal,
R12 R16 ,2,36k,Resistors_THT:R_Axial_DIN0207_L6.3mm_D2.5mm_P10.16mm_Horizontal,
R13 ,1,105k,Resistors_THT:R_Axial_DIN0207_L6.3mm_D2.5mm_P10.16mm_Horizontal,
R14 ,1,10.2k,Resistors_THT:R_Axial_DIN0207_L6.3mm_D2.5mm_P10.16mm_Horizontal,
R15 ,1,47k,Resistors_THT:R_Axial_DIN0207_L6.3mm_D2.5mm_P10.16mm_Horizontal,
R17 ,1,22,Resistors_THT:R_Axial_DIN0207_L6.3mm_D2.5mm_P10.16mm_Horizontal,
R18 R19 ,2,2.2k,Resistors_THT:R_Axial_DIN0207_L6.3mm_D2.5mm_P10.16mm_Horizontal,
R22 ,1,13k,Resistors_THT:R_Axial_DIN0207_L6.3mm_D2.5mm_P10.16mm_Horizontal,
R24 ,1,1.5k,Resistors_THT:R_Axial_DIN0207_L6.3mm_D2.5mm_P10.16mm_Horizontal,
R26 R27 R28 R29 ,4,22,Resistors_perso:R_Axial_DIN0207_L40mm_D2.5mm_P15.24mm_Horizontal,
RV1 ,1,15k,Footprints_clem:trimmer_diplohm_p94,
SW1 ,1,JS203011CQN,Switchs_perso:SW_SP3T,
U1 U2 U3 ,3,LM358N,Housings_DIP:DIP-8_W7.62mm,




BOM made with KICAD_BOM_WIZARD (https://github.com/HashDefineElectronics/KiCad_BOM_Wizard.git)
Generated 2018 October 30, Tuesday 10:15:00
