(module Resistors_perso:R_Axial_Power_L40.0mm_W9.0mm_P47.72mm (layer F.Cu) (tedit 5B03EFBD)
  (descr "Resistor, Axial_Power series, Axial, Horizontal, pin pitch=45.72mm, 9W, length*diameter=38*9mm^2, http://cdn-reichelt.de/documents/datenblatt/B400/5WAXIAL_9WAXIAL_11WAXIAL_17WAXIAL%23YAG.pdf")
  (tags "Resistor Axial_Power series Axial Horizontal pin pitch 45.72mm 9W length 38mm diameter 9mm")
  (fp_text reference R9 (at 26.215 -1.472) (layer F.SilkS)
    (effects (font (size 1 1) (thickness 0.15)))
  )
  (fp_text value 1.5k (at 26.0626 1.0426) (layer F.SilkS)
    (effects (font (size 1 1) (thickness 0.15)))
  )
  (fp_line (start 49.2 -4.85) (end -1.45 -4.85) (layer F.CrtYd) (width 0.05))
  (fp_line (start 49.2 4.85) (end 49.2 -4.85) (layer F.CrtYd) (width 0.05))
  (fp_line (start -1.45 4.85) (end 49.2 4.85) (layer F.CrtYd) (width 0.05))
  (fp_line (start -1.45 -4.85) (end -1.45 4.85) (layer F.CrtYd) (width 0.05))
  (fp_line (start 46.34 0) (end 43.92 0) (layer F.SilkS) (width 0.12))
  (fp_line (start 1.38 0) (end 3.8 0) (layer F.SilkS) (width 0.12))
  (fp_line (start 43.92 -4.56) (end 3.8 -4.56) (layer F.SilkS) (width 0.12))
  (fp_line (start 43.92 4.56) (end 43.92 -4.56) (layer F.SilkS) (width 0.12))
  (fp_line (start 3.8 4.56) (end 43.92 4.56) (layer F.SilkS) (width 0.12))
  (fp_line (start 3.8 -4.56) (end 3.8 4.56) (layer F.SilkS) (width 0.12))
  (fp_line (start 47.72 0) (end 43.86 0) (layer F.Fab) (width 0.1))
  (fp_line (start 0 0) (end 3.86 0) (layer F.Fab) (width 0.1))
  (fp_line (start 43.86 -4.5) (end 3.86 -4.5) (layer F.Fab) (width 0.1))
  (fp_line (start 43.86 4.5) (end 43.86 -4.5) (layer F.Fab) (width 0.1))
  (fp_line (start 3.86 4.5) (end 43.86 4.5) (layer F.Fab) (width 0.1))
  (fp_line (start 3.86 -4.5) (end 3.86 4.5) (layer F.Fab) (width 0.1))
  (pad 2 thru_hole oval (at 47.72 0) (size 2.4 2.4) (drill 1) (layers *.Cu *.Mask))
  (pad 1 thru_hole circle (at 0 0) (size 2.4 2.4) (drill 1) (layers *.Cu *.Mask))
  (model ${KISYS3DMOD}/Resistors_THT.3dshapes/R_Axial_Power_L38.0mm_W9.0mm_P45.72mm.wrl
    (at (xyz 0 0 0))
    (scale (xyz 0.393701 0.393701 0.393701))
    (rotate (xyz 0 0 0))
  )
)
